Project title
…
$ hccov_ext_ppp2020_pc     <dbl> NA, NA, NA, NA, NA, NA, NA, NA, NA, NA, NA, N…
$ hccov_pvtd_ppp2020_pc    <dbl> NA, NA, NA, NA, NA, NA, NA, NA, NA, NA, NA, N…
$ age1_ppp2020_pc          <dbl> NA, NA, NA, NA, NA, NA, NA, NA, NA, NA, NA, N…
$ age1_gghed_ppp2020_pc    <dbl> NA, NA, NA, NA, NA, NA, NA, NA, NA, NA, NA, N…
$ age1_ext_ppp2020_pc      <dbl> NA, NA, NA, NA, NA, NA, NA, NA, NA, NA, NA, N…
$ age1_pvtd_ppp2020_pc     <dbl> NA, NA, NA, NA, NA, NA, NA, NA, NA, NA, NA, N…
$ hk_ppp2020_pc            <dbl> NA, NA, NA, NA, NA, NA, NA, NA, NA, NA, NA, N…
$ hk_gghed_ppp2020_pc      <dbl> NA, NA, NA, NA, NA, NA, NA, NA, NA, NA, NA, N…
$ hk_ext_ppp2020_pc        <dbl> NA, NA, NA, NA, NA, NA, NA, NA, NA, NA, NA, N…
$ hk_pvtd_ppp2020_pc       <dbl> NA, NA, NA, NA, NA, NA, NA, NA, NA, NA, NA, N…
$ gdp_ppp2020_pc           <dbl> 9422.671, 9572.762, 9973.432, 10547.676, 1084…
$ pfc_ppp2020_pc           <dbl> 3917.144, 4184.333, 4386.696, 4270.039, 4182.…
$ gge_ppp2020_pc           <dbl> 2692.144, 2991.622, 3419.400, 3396.579, 3337.…

# A tibble: 4,224 × 4
   country  year region income      
   <chr>   <dbl> <chr>  <chr>       
 1 Algeria  2000 AFR    Lower-middle
 2 Algeria  2001 AFR    Lower-middle
 3 Algeria  2002 AFR    Lower-middle
 4 Algeria  2003 AFR    Lower-middle
 5 Algeria  2004 AFR    Lower-middle
 6 Algeria  2005 AFR    Lower-middle
 7 Algeria  2006 AFR    Lower-middle
 8 Algeria  2007 AFR    Lower-middle
 9 Algeria  2008 AFR    Lower-middle
10 Algeria  2009 AFR    Lower-middle
# … with 4,214 more rows
…
