Project title
…
soccer_clean <- soccer |>
  mutate(
    player_height_cm = as.numeric(gsub(" cm", "", soccer$player_height)),
    player_weight_kg = as.numeric(gsub(" kg", "", soccer$player_weight))
  ) |>
  select(-c(
    games_number, goals_saves, dribbles_past, penalty_won,
    penalty_commited, player_height, player_weight, penalty_saved,
    player_id_1, player_id_48, player_firstname, league_season
  ))

soccer_clean

# A tibble: 560 × 51
   team_id team_name  team_logo league_id league_name league_country league_logo
     <dbl> <chr>      <chr>         <dbl> <chr>       <chr>          <chr>      
 1      47 Tottenham  https://…        39 Premier Le… England        https://me…
 2      40 Liverpool  https://…        39 Premier Le… England        https://me…
 3      33 Mancheste… https://…        39 Premier Le… England        https://me…
 4      47 Tottenham  https://…        39 Premier Le… England        https://me…
 5      40 Liverpool  https://…        39 Premier Le… England        https://me…
 6      50 Mancheste… https://…        39 Premier Le… England        https://me…
 7      40 Liverpool  https://…        39 Premier Le… England        https://me…
 8      46 Leicester  https://…        39 Premier Le… England        https://me…
 9      52 Crystal P… https://…        39 Premier Le… England        https://me…
10      50 Mancheste… https://…        39 Premier Le… England        https://me…
# ℹ 550 more rows
# ℹ 44 more variables: league_flag <chr>, games_appearences <dbl>,
#   games_lineups <dbl>, games_minutes <dbl>, games_position <chr>,
#   games_rating <dbl>, games_captain <lgl>, substitutes_in <dbl>,
#   substitutes_out <dbl>, substitutes_bench <dbl>, shots_total <dbl>,
#   shots_on <dbl>, goals_total <dbl>, goals_conceded <dbl>,
#   goals_assists <dbl>, passes_total <dbl>, passes_key <dbl>, …
…
soccer_clean <- soccer |>
  mutate(
    player_height_cm = as.numeric(gsub(" cm", "", soccer$player_height)),
    player_weight_kg = as.numeric(gsub(" kg", "", soccer$player_weight))
  ) |>
  select(-c(
    games_number, goals_saves, dribbles_past, penalty_won,
    penalty_commited, player_height, player_weight, penalty_saved,
    player_id_1, player_id_48, player_firstname, league_season
  ))

soccer_clean

# A tibble: 560 × 51
   team_id team_name  team_logo league_id league_name league_country league_logo
     <dbl> <chr>      <chr>         <dbl> <chr>       <chr>          <chr>      
 1      47 Tottenham  https://…        39 Premier Le… England        https://me…
 2      40 Liverpool  https://…        39 Premier Le… England        https://me…
 3      33 Mancheste… https://…        39 Premier Le… England        https://me…
 4      47 Tottenham  https://…        39 Premier Le… England        https://me…
 5      40 Liverpool  https://…        39 Premier Le… England        https://me…
 6      50 Mancheste… https://…        39 Premier Le… England        https://me…
 7      40 Liverpool  https://…        39 Premier Le… England        https://me…
 8      46 Leicester  https://…        39 Premier Le… England        https://me…
 9      52 Crystal P… https://…        39 Premier Le… England        https://me…
10      50 Mancheste… https://…        39 Premier Le… England        https://me…
# ℹ 550 more rows
# ℹ 44 more variables: league_flag <chr>, games_appearences <dbl>,
#   games_lineups <dbl>, games_minutes <dbl>, games_position <chr>,
#   games_rating <dbl>, games_captain <lgl>, substitutes_in <dbl>,
#   substitutes_out <dbl>, substitutes_bench <dbl>, shots_total <dbl>,
#   shots_on <dbl>, goals_total <dbl>, goals_conceded <dbl>,
#   goals_assists <dbl>, passes_total <dbl>, passes_key <dbl>, …
…
